module gitlab.com/qosenergy/squalus

require (
	github.com/denisenkom/go-mssqldb v0.0.0-20191001013358-cfbb681360f0
	github.com/go-sql-driver/mysql v1.4.1
	github.com/lib/pq v1.2.0
	github.com/mattn/go-sqlite3 v1.12.0
	github.com/stretchr/testify v1.4.0
)

require (
	github.com/davecgh/go-spew v1.1.0 // indirect
	github.com/golang-sql/civil v0.0.0-20190719163853-cb61b32ac6fe // indirect
	github.com/pmezard/go-difflib v1.0.0 // indirect
	golang.org/x/crypto v0.0.0-20190325154230-a5d413f7728c // indirect
	google.golang.org/appengine v1.6.5 // indirect
	gopkg.in/yaml.v2 v2.2.2 // indirect
)

go 1.18
